{
  "address": "0x549523cC73Cc2b97A1c3219C897829D2539d7fBB",
  "networkId": "877975146",
  "rpc": "https://tzcor-0.qaas-prod-us.quorum.icn.engineering/6a1-W2ckRS7Ysc_fDsZGleVWkiX5CR98sbvtoW8DtAI=",
  "mnemonic": "obscure endorse crushes divide citizen basket slow fade oak lab gap dignity"
}